…
This breaks down further the type of water and the habitat type into separate columns with the specific count of areas that had deep water, no water, shallow water, and unknown.



::: {.cell}

```{.r .cell-code}
test_data %>%
  select(Water, HabType, Type, Female)
```

::: {.cell-output .cell-output-stdout}

```
# A tibble: 156 × 4
   Water         HabType   Type       Female
   <chr>         <chr>     <chr>       <dbl>
 1 Deep water    Pond      Marsh/Pond      0
 2 Deep water    Pond      Marsh/Pond      0
 3 Deep water    Pond      Marsh/Pond      0
 4 Deep water    Pond      Marsh/Pond      0
 5 Deep water    Pond      Marsh/Pond      0
 6 Shallow water Pond      Marsh/Pond      0
 7 Deep water    Pond      Marsh/Pond      0
 8 Shallow water Reservoir Reservoir       0
 9 Shallow water Reservoir Reservoir       0
10 Shallow water Reservoir Reservoir       0
# ℹ 146 more rows
```
…
